{
  "acf": {
    "line_id": "",
    "home_banner_slider": [
      {
        "image": "http://oh-my-watch.local/wp-content/uploads/2021/02/banner-1.jpg",
        "title": "The Watch Everyone Desires!",
        "description": "The best in class elegant watches from the luxury brand Swiss Eagle high-quality watches into which a lot of care has gone in.",
        "align": "right",
        "textColor": "#ffffff",
        "link": "http://localhost:3000/products"
      },
      {
        "image": "http://oh-my-watch.local/wp-content/uploads/2021/02/banner-2.jpg",
        "title": "OMEGA Seamaster Profressional",
        "description": "The best in class elegant watches from the luxury brand Swiss Eagle high-quality watches",
        "align": "left",
        "textColor": "#b28c4f",
        "link": ""
      }
    ],
    "address": "Near Sindy Lim K-Village Sukhumvit 26 Alley, Khlong Tan, Khlong Toei, Bangkok 10110",
    "facebook": "",
    "instagram": "",
    "youtube": "",
    "email": "onmywatch.studio@gmail.com",
    "phone_number": "099 337 3889",
    "fax": "02 000 0000",
    "image_about_us": "http://oh-my-watch.local/wp-content/uploads/2021/02/about-content.jpg",
    "content_about_us": "<p>\u0e16\u0e37\u0e2d\u0e01\u0e33\u0e40\u0e19\u0e34\u0e14\u0e08\u0e32\u0e01\u0e04\u0e19\u0e17\u0e35\u0e48\u0e23\u0e31\u0e01\u0e41\u0e25\u0e30\u0e2b\u0e25\u0e07\u0e43\u0e2b\u0e25\u0e43\u0e19\u0e19\u0e32\u0e2c\u0e34\u0e01\u0e32 \u0e41\u0e1a\u0e23\u0e19\u0e14\u0e4c\u0e40\u0e19\u0e21\u0e21\u0e32\u0e22\u0e32\u0e27\u0e19\u0e32\u0e19\u0e01\u0e27\u0e48\u0e32 20 \u0e1b\u0e35 \u0e41\u0e25\u0e30\u0e15\u0e49\u0e2d\u0e07\u0e01\u0e32\u0e23\u0e17\u0e35\u0e48\u0e08\u0e30\u0e16\u0e48\u0e32\u0e22\u0e17\u0e2d\u0e14\u0e04\u0e27\u0e32\u0e21\u0e23\u0e39\u0e49\u0e41\u0e25\u0e30\u0e41\u0e1a\u0e48\u0e07\u0e1b\u0e31\u0e19\u0e1b\u0e23\u0e30\u0e2a\u0e1a\u0e01\u0e32\u0e23\u0e13\u0e4c\u0e43\u0e2b\u0e49\u0e41\u0e01\u0e48\u0e1c\u0e39\u0e49\u0e17\u0e35\u0e48\u0e23\u0e31\u0e01\u0e19\u0e32\u0e2c\u0e34\u0e01\u0e32 \u0e41\u0e1a\u0e23\u0e19\u0e14\u0e4c\u0e40\u0e19\u0e21\u0e40\u0e0a\u0e48\u0e19\u0e40\u0e14\u0e35\u0e22\u0e27\u0e01\u0e31\u0e19</p>\n<p>&nbsp;</p>\n<h3>On My Watch \u0e04\u0e37\u0e2d Community</h3>\n<p>\u0e17\u0e35\u0e48\u0e23\u0e27\u0e21\u0e01\u0e32\u0e23\u0e0b\u0e37\u0e49\u0e2d-\u0e02\u0e32\u0e22-\u0e41\u0e25\u0e01\u0e40\u0e1b\u0e25\u0e35\u0e48\u0e22\u0e19 \u0e19\u0e32\u0e2c\u0e34\u0e01\u0e32\u0e41\u0e1a\u0e23\u0e19\u0e14\u0e4c\u0e40\u0e19\u0e21\u0e02\u0e2d\u0e07\u0e41\u0e17\u0e49 100% \u0e40\u0e17\u0e48\u0e32\u0e19\u0e31\u0e49\u0e19 \u0e43\u0e04\u0e23\u0e44\u0e21\u0e48\u0e0a\u0e31\u0e27\u0e23\u0e4c\u0e40\u0e23\u0e32\u0e1f\u0e31\u0e19\u0e18\u0e07\u0e43\u0e2b\u0e49</p>\n<p>&nbsp;</p>\n<p>\u0e40\u0e23\u0e32\u0e23\u0e31\u0e1a\u0e0b\u0e37\u0e49\u0e2d\u0e19\u0e32\u0e2c\u0e34\u0e01\u0e32\u0e41\u0e1a\u0e23\u0e19\u0e14\u0e4c\u0e40\u0e19\u0e21\u0e17\u0e38\u0e01\u0e23\u0e38\u0e48\u0e19 \u0e17\u0e38\u0e01\u0e22\u0e35\u0e48\u0e2b\u0e49\u0e2d \u0e17\u0e38\u0e01\u0e2a\u0e20\u0e32\u0e1e \u0e43\u0e04\u0e23\u0e44\u0e21\u0e48\u0e01\u0e25\u0e49\u0e32\u0e23\u0e31\u0e1a \u0e40\u0e23\u0e32\u0e23\u0e31\u0e1a \u0e43\u0e19\u0e23\u0e32\u0e04\u0e32\u0e17\u0e35\u0e48\u0e04\u0e38\u0e13\u0e44\u0e21\u0e48\u0e2d\u0e32\u0e08\u0e1b\u0e0f\u0e34\u0e40\u0e2a\u0e18\u0e44\u0e14\u0e49</p>\n<p>&nbsp;</p>\n<p>\u0e19\u0e2d\u0e01\u0e08\u0e32\u0e01\u0e19\u0e35\u0e49\u0e40\u0e23\u0e32\u0e22\u0e31\u0e07\u0e21\u0e35\u0e1a\u0e23\u0e34\u0e01\u0e32\u0e23\u0e40\u0e0b\u0e2d\u0e23\u0e4c\u0e27\u0e34\u0e2a\u0e19\u0e32\u0e2c\u0e34\u0e01\u0e32\u0e41\u0e1a\u0e23\u0e19\u0e14\u0e4c\u0e40\u0e19\u0e21\u0e04\u0e23\u0e1a\u0e27\u0e07\u0e08\u0e23 \u0e21\u0e32\u0e15\u0e23\u0e10\u0e32\u0e19\u0e28\u0e39\u0e19\u0e22\u0e4c\u0e1a\u0e23\u0e34\u0e01\u0e32\u0e23 \u0e44\u0e21\u0e48\u0e27\u0e48\u0e32\u0e08\u0e30\u0e40\u0e1b\u0e25\u0e35\u0e48\u0e22\u0e19\u0e16\u0e48\u0e32\u0e19 \u0e25\u0e49\u0e32\u0e07\u0e40\u0e04\u0e23\u0e37\u0e48\u0e2d\u0e07 \u0e2b\u0e23\u0e37\u0e2d\u0e41\u0e21\u0e49\u0e41\u0e15\u0e48\u0e01\u0e32\u0e23\u0e02\u0e31\u0e14\u0e15\u0e31\u0e27\u0e40\u0e23\u0e37\u0e2d\u0e19\u0e40\u0e23\u0e32\u0e01\u0e47\u0e21\u0e35\u0e17\u0e35\u0e21\u0e0a\u0e48\u0e32\u0e07 \u0e17\u0e35\u0e48\u0e14\u0e35\u0e17\u0e35\u0e48\u0e2a\u0e38\u0e14 \u0e0a\u0e33\u0e19\u0e32\u0e0d\u0e17\u0e35\u0e48\u0e2a\u0e38\u0e14\u0e43\u0e19\u0e41\u0e15\u0e48\u0e25\u0e30\u0e41\u0e1a\u0e23\u0e19\u0e14\u0e4c \u0e04\u0e2d\u0e22\u0e14\u0e39\u0e41\u0e25\u0e43\u0e2b\u0e49\u0e19\u0e32\u0e2c\u0e34\u0e01\u0e32\u0e02\u0e2d\u0e07\u0e04\u0e38\u0e13\u0e27\u0e34\u0e49\u0e07 \u0e23\u0e32\u0e27\u0e01\u0e31\u0e1a\u0e02\u0e2d\u0e07\u0e43\u0e2b\u0e21\u0e48</p>\n<p>&nbsp;</p>\n<h3>\u0e17\u0e38\u0e01\u0e40\u0e23\u0e37\u0e48\u0e2d\u0e07\u0e19\u0e32\u0e2c\u0e34\u0e01\u0e32\u0e41\u0e1a\u0e23\u0e19\u0e14\u0e4c\u0e40\u0e19\u0e21 \u0e44\u0e27\u0e49\u0e43\u0e08\u0e43\u0e2b\u0e49\u0e40\u0e23\u0e32\u0e14\u0e39\u0e41\u0e25\u0e04\u0e38\u0e13</h3>\n",
    "product_buy_wathces": [
      {
        "image": "http://oh-my-watch.local/wp-content/uploads/2021/02/product.jpg",
        "brand": "ROLEX",
        "short_description": "test",
        "description": "test",
        "phone_number": "0851530470",
        "line_id": "onmywatch",
        "line_url": "https://lin.ee/Oq3UIBt"
      }
    ],
    "title_buy_watches": "Lorem ipsum dolor sit amet",
    "conent_buy_watches": "Lorem ipsum dolor sit amet, consectetur adipiscing elit, sed do eiusmod tempor incididunt ut labore et dolore magna aliqua. Quis ipsum suspendisse ultrices gravida. Risus commodo viverra maecenas accumsan lacus vel facilisis. Lorem ipsum dolor sit amet, consectetur adipiscing elit, sed do eiusmod tempor incididunt ut labore et dolore magna aliqua. Quis ipsum suspendisse ultrices gravida. Risus commodo viverra maecenas accumsan lacus vel facilisis. Lorem ipsum dolor sit amet, consectetur adipiscing elit, sed do eiusmod tempor incididunt ut labore et dolore magna aliqua. Quis ipsum suspendisse ultrices gravida. Risus commodo viverra maecenas accumsan lacus vel facilisis.",
    "title_warranty": "Lorem ipsum dolor sit amet",
    "conent_warranty": "Lorem ipsum dolor sit amet, consectetur adipiscing elit, sed do eiusmod tempor incididunt ut labore et dolore magna aliqua. Quis ipsum suspendisse ultrices gravida. Risus commodo viverra maecenas accumsan lacus vel facilisis. Lorem ipsum dolor sit amet, consectetur adipiscing elit, sed do eiusmod tempor incididunt ut labore et dolore magna aliqua. Quis ipsum suspendisse ultrices gravida. Risus commodo viverra maecenas accumsan lacus vel facilisis. Lorem ipsum dolor sit amet, consectetur adipiscing elit, sed do eiusmod tempor incididunt ut labore et dolore magna aliqua. Quis ipsum suspendisse ultrices gravida. Risus commodo viverra maecenas accumsan lacus vel facilisis.",
    "service1": "Lorem ipsum dolor sit amet, consectetur adipiscing elit, sed do eiusmod tempor incididunt ut labore et dolore magna aliqua. Quis ipsum suspendisse ultrices gravida. Risus commodo viverra maecenas accumsan lacus vel facilisis.",
    "service2": "Lorem ipsum dolor sit amet, consectetur adipiscing elit, sed do eiusmod tempor incididunt ut labore et dolore magna aliqua. Quis ipsum suspendisse ultrices gravida. Risus commodo viverra maecenas accumsan lacus vel facilisis.",
    "service3": "Lorem ipsum dolor sit amet, consectetur adipiscing elit, sed do eiusmod tempor incididunt ut labore et dolore magna aliqua. Quis ipsum suspendisse ultrices gravida. Risus commodo viverra maecenas accumsan lacus vel facilisis.",
    "service4": "Lorem ipsum dolor sit amet, consectetur adipiscing elit, sed do eiusmod tempor incididunt ut labore et dolore magna aliqua. Quis ipsum suspendisse ultrices gravida. Risus commodo viverra maecenas accumsan lacus vel facilisis.",
    "content_policy": "<p>Lorem ipsum dolor sit amet, consectetur adipiscing elit, sed do eiusmod tempor incididunt ut labore et dolore magna aliqua. Quis ipsum suspendisse ultrices gravida. Risus commodo viverra maecenas accumsan lacus vel facilisis. Lorem ipsum dolor sit amet, consectetur adipiscing elit, sed do eiusmod tempor incididunt ut labore et dolore magna aliqua. Quis ipsum suspendisse ultrices gravida. Risus commodo viverra maecenas accumsan lacus vel facilisis. Lorem ipsum dolor sit amet, consectetur adipiscing elit, sed do eiusmod tempor incididunt ut labore et dolore magna aliqua. Quis ipsum suspendisse ultrices gravida. Risus commodo viverra maecenas accumsan lacus vel facilisis.</p>\n",
    "twitter": "",
    "service1_title": "2 years free warranty",
    "service2_title": "Genuine 100% checked",
    "service3_title": "Consignment worry-free",
    "service4_title": "Professional team",
    "conent_about_us_for_home_page": "\u0e16\u0e37\u0e2d\u0e01\u0e33\u0e40\u0e19\u0e34\u0e14\u0e08\u0e32\u0e01\u0e04\u0e19\u0e17\u0e35\u0e48\u0e23\u0e31\u0e01\u0e41\u0e25\u0e30\u0e2b\u0e25\u0e07\u0e43\u0e2b\u0e25\u0e43\u0e19\u0e19\u0e32\u0e2c\u0e34\u0e01\u0e32 \u0e41\u0e1a\u0e23\u0e19\u0e14\u0e4c\u0e40\u0e19\u0e21\u0e21\u0e32\u0e22\u0e32\u0e27\u0e19\u0e32\u0e19\u0e01\u0e27\u0e48\u0e32 20 \u0e1b\u0e35 \u0e41\u0e25\u0e30\u0e15\u0e49\u0e2d\u0e07\u0e01\u0e32\u0e23\u0e17\u0e35\u0e48\u0e08\u0e30\u0e16\u0e48\u0e32\u0e22\u0e17\u0e2d\u0e14\u0e04\u0e27\u0e32\u0e21\u0e23\u0e39\u0e49\u0e41\u0e25\u0e30\u0e41\u0e1a\u0e48\u0e07\u0e1b\u0e31\u0e19\u0e1b\u0e23\u0e30\u0e2a\u0e1a\u0e01\u0e32\u0e23\u0e13\u0e4c\u0e43\u0e2b\u0e49\u0e41\u0e01\u0e48\u0e1c\u0e39\u0e49\u0e17\u0e35\u0e48\u0e23\u0e31\u0e01\u0e19\u0e32\u0e2c\u0e34\u0e01\u0e32 \u0e41\u0e1a\u0e23\u0e19\u0e14\u0e4c\u0e40\u0e19\u0e21\u0e40\u0e0a\u0e48\u0e19\u0e40\u0e14\u0e35\u0e22\u0e27\u0e01\u0e31\u0e19<br />\r\n<br />\r\nOn My Watch \u0e04\u0e37\u0e2d Community \u0e17\u0e35\u0e48\u0e23\u0e27\u0e21\u0e01\u0e32\u0e23\u0e0b\u0e37\u0e49\u0e2d-\u0e02\u0e32\u0e22-\u0e41\u0e25\u0e01\u0e40\u0e1b\u0e25\u0e35\u0e48\u0e22\u0e19 \u0e19\u0e32\u0e2c\u0e34\u0e01\u0e32\u0e41\u0e1a\u0e23\u0e19\u0e14\u0e4c\u0e40\u0e19\u0e21\u0e02\u0e2d\u0e07\u0e41\u0e17\u0e49 100% \u0e40\u0e17\u0e48\u0e32\u0e19\u0e31\u0e49\u0e19 \u0e43\u0e04\u0e23\u0e44\u0e21\u0e48\u0e0a\u0e31\u0e27\u0e23\u0e4c\u0e40\u0e23\u0e32\u0e1f\u0e31\u0e19\u0e18\u0e07\u0e43\u0e2b\u0e49 \u0e40\u0e23\u0e32\u0e23\u0e31\u0e1a\u0e0b\u0e37\u0e49\u0e2d\u0e19\u0e32\u0e2c\u0e34\u0e01\u0e32\u0e41\u0e1a\u0e23\u0e19\u0e14\u0e4c\u0e40\u0e19\u0e21\u0e17\u0e38\u0e01\u0e23\u0e38\u0e48\u0e19 \u0e17\u0e38\u0e01\u0e22\u0e35\u0e48\u0e2b\u0e49\u0e2d \u0e17\u0e38\u0e01\u0e2a\u0e20\u0e32\u0e1e \u0e43\u0e04\u0e23\u0e44\u0e21\u0e48\u0e01\u0e25\u0e49\u0e32\u0e23\u0e31\u0e1a \u0e40\u0e23\u0e32\u0e23\u0e31\u0e1a \u0e43\u0e19\u0e23\u0e32\u0e04\u0e32\u0e17\u0e35\u0e48\u0e04\u0e38\u0e13\u0e44\u0e21\u0e48\u0e2d\u0e32\u0e08\u0e1b\u0e0f\u0e34\u0e40\u0e2a\u0e18\u0e44\u0e14\u0e49",
    "google_map_link": "https://www.google.co.th/maps",
    "top_banner_about_us": "http://oh-my-watch.local/wp-content/uploads/2021/02/about-banner.jpg",
    "top_banner_buy_watches": "http://oh-my-watch.local/wp-content/uploads/2021/02/buy-watches-banner.jpg",
    "top_banner_products": "http://oh-my-watch.local/wp-content/uploads/2021/02/product-banner.jpg",
    "top_banner_blog": "http://oh-my-watch.local/wp-content/uploads/2021/02/blog-banner.jpg",
    "top_banner_warranty": "http://oh-my-watch.local/wp-content/uploads/2021/02/warranty-banner.jpg",
    "top_banner_policy": "http://oh-my-watch.local/wp-content/uploads/2021/02/policy-banner.jpg",
    "show_popup": "no",
    "popup_image": "http://oh-my-watch.local/wp-content/uploads/2021/02/popup.jpg",
    "popup_image_mobile": "http://oh-my-watch.local/wp-content/uploads/2021/02/popup-mobile.jpg",
    "popup_link": "http://localhost:3000/products",
    "warranty_1_image_white_color": "http://oh-my-watch.local/wp-content/uploads/2021/03/icon-warranty.svg",
    "warranty_1_image_black_color": "http://oh-my-watch.local/wp-content/uploads/2021/03/icon-warranty-black.svg",
    "warranty_2_image_white_color": "http://oh-my-watch.local/wp-content/uploads/2021/03/icon-checked.svg",
    "warranty_2_image_black_color": "http://oh-my-watch.local/wp-content/uploads/2021/03/icon-checked-black.svg",
    "warranty_3_image_white_color": "http://oh-my-watch.local/wp-content/uploads/2021/03/icon-consignment.svg",
    "warranty_3_image_black_color": "http://oh-my-watch.local/wp-content/uploads/2021/03/icon-consignment-black.svg",
    "warranty_4_image_white_color": "http://oh-my-watch.local/wp-content/uploads/2021/03/icon-profressional.svg",
    "warranty_4_image_black_color": "http://oh-my-watch.local/wp-content/uploads/2021/03/icon-profressional-black.svg",
    "banner_title_about": "We are experts in watches",
    "meta_title_about": "About Us - On My Watch",
    "meta_description_about": "The place to buy and sell luxury watches online.",
    "banner_title_buy_watches": "Buying luxury watches for a high price of time",
    "meta_title_buy_watches": "\u0e23\u0e31\u0e1a\u0e0b\u0e37\u0e49\u0e2d\u0e19\u0e32\u0e2c\u0e01\u0e32\u0e41\u0e1a\u0e23\u0e19\u0e14\u0e4c\u0e40\u0e19\u0e21\u0e21\u0e37\u0e2d\u0e2a\u0e2d\u0e07\u0e02\u0e2d\u0e07\u0e41\u0e17\u0e43\u0e49\u0e2b\u0e49\u0e23\u0e32\u0e04\u0e32\u0e2a\u0e39\u0e07\u0e23\u0e31\u0e1a\u0e40\u0e07\u0e34\u0e19\u0e2a\u0e14\u0e17\u0e31\u0e19\u0e17\u0e35",
    "meta_description_buy_watches": "",
    "banner_title_products": "The architects of time",
    "meta_title_products": "",
    "meta_description_products": "",
    "banner_title_blog": "Latest news",
    "meta_title_blog": "",
    "meta_description_blog": "",
    "banner_title_warranty": "Service on my watch",
    "meta_title_warranty": "",
    "meta_description_warranty": "",
    "meta_title_contact_us": "",
    "meta_description_contact_us": "",
    "meta_title_policy": "",
    "meta_description_policy": "",
    "banner_title_policy": "Oh My Watch",
    "meta_title_home": "On My Watch",
    "meta_description_home": "The place to buy and sell luxury watches online."
  }
}
